…
3.  **Кластеризовать запросы от устройств к точкам доступа по их именам.
    Определить время появления устройства в зоне радиовидимости и время
    выхода его из нее**

``` r
clients %>%
  filter(!is.na(Probed.ESSIDs)) %>%
  group_by(Probed.ESSIDs) %>%
  summarise("min time" = min(First.time.seen),
            "max time" = max(Last.time.seen),)
```

    # A tibble: 107 × 3
       Probed.ESSIDs                `min time`          `max time`         
       <chr>                        <dttm>              <dttm>             
     1 -D-13-                       2023-07-28 09:14:42 2023-07-28 10:26:42
     2 1                            2023-07-28 10:36:12 2023-07-28 11:56:13
     3 107                          2023-07-28 10:29:43 2023-07-28 10:29:43
     4 531                          2023-07-28 10:57:04 2023-07-28 10:57:04
     5 AAAAAOB/CC0ADwGkRedmi 3S     2023-07-28 09:34:20 2023-07-28 11:44:40
     6 AKADO-D967                   2023-07-28 10:31:55 2023-07-28 10:31:55
     7 AQAAAB6zaIoATwEURedmi Note 5 2023-07-28 10:25:19 2023-07-28 11:51:48
     8 ASUS                         2023-07-28 10:31:13 2023-07-28 10:31:13
     9 Alex-net2                    2023-07-28 10:01:06 2023-07-28 10:01:06
    10 AndroidAP177B                2023-07-28 09:13:09 2023-07-28 11:34:42
    # ℹ 97 more rows
…
